…
How many zip codes appeared 116 times, fewer than 10

``` r
count(zori_df, zip_code)|> 
filter(n==116)
```

    ## # A tibble: 149 × 2
    ##    zip_code     n
    ##       <dbl> <int>
    ##  1    10001   116
    ##  2    10002   116
    ##  3    10003   116
    ##  4    10004   116
    ##  5    10005   116
    ##  6    10006   116
    ##  7    10007   116
    ##  8    10009   116
    ##  9    10010   116
    ## 10    10011   116
    ## # ℹ 139 more rows
…
